{
  "extends": [
    "config:base",
    ":semanticCommits",
    ":semanticCommitTypeAll(build)",
    ":semanticCommitScopeDisabled",
    "schedule:nonOfficeHours"
  ],
  "automerge": true,
  "automergeType": "pr",
  "dependencyDashboard": true,
  "postUpdateOptions": [
    "gomodTidy"
  ],
  "gitlabci": {
    "fileMatch": [
      "^\\.gitlab/ci/.*\\.yml$"
    ]
  },
  "gomod": {
    "major": {
      "dependencyDashboardApproval": true
    }
  },
  "ignoreDeps": [],
  "packageRules": [
    {
      "packageNames": ["history"],
      "managers": ["npm"],
      "allowedVersions": "<5.0.0"
    },
    {
      "groupName": "styled-components@5.2.0 introduced breaking behaviour https://github.com/styled-components/styled-components/issues/3273",
      "packageNames": ["styled-components"],
      "managers": ["npm"],
      "allowedVersions": "<5.2.0"
    },
    {
      "groupName": "support for updating Helms Chart.lock files is missing https://github.com/renovatebot/renovate/issues/6877",
      "datasources": ["helm"],
      "enabled": false
    },
    {
      "groupName": "redoc and peers - wait for full release of v2.0",
      "paths": ["directory-ui/**"],
      "packageNames": ["redoc", "mobx", "core-js"],
      "enabled": false
    }
  ]
}
